Linked: (/home/jsr73/ws_moveit/devel/.private/srdfdom/lib/libsrdfdom.so.0.6.4, /home/jsr73/ws_moveit/devel/lib/libsrdfdom.so.0.6.4)
Linked: (/home/jsr73/ws_moveit/devel/.private/srdfdom/lib/libsrdfdom.so, /home/jsr73/ws_moveit/devel/lib/libsrdfdom.so)
Linked: (/home/jsr73/ws_moveit/devel/.private/srdfdom/lib/python3/dist-packages/srdfdom/__init__.py, /home/jsr73/ws_moveit/devel/lib/python3/dist-packages/srdfdom/__init__.py)
Linked: (/home/jsr73/ws_moveit/devel/.private/srdfdom/lib/pkgconfig/srdfdom.pc, /home/jsr73/ws_moveit/devel/lib/pkgconfig/srdfdom.pc)
Linked: (/home/jsr73/ws_moveit/devel/.private/srdfdom/share/srdfdom/cmake/srdfdomConfig.cmake, /home/jsr73/ws_moveit/devel/share/srdfdom/cmake/srdfdomConfig.cmake)
Linked: (/home/jsr73/ws_moveit/devel/.private/srdfdom/share/srdfdom/cmake/srdfdomConfig-version.cmake, /home/jsr73/ws_moveit/devel/share/srdfdom/cmake/srdfdomConfig-version.cmake)
