Symlinking /home/jsr73/ws_moveit/devel/./cmake.lock
Symlinking /home/jsr73/ws_moveit/devel/./_setup_util.py
Symlinking /home/jsr73/ws_moveit/devel/./env.sh
Symlinking /home/jsr73/ws_moveit/devel/./setup.bash
Symlinking /home/jsr73/ws_moveit/devel/./local_setup.bash
Symlinking /home/jsr73/ws_moveit/devel/./setup.sh
Symlinking /home/jsr73/ws_moveit/devel/./local_setup.sh
Symlinking /home/jsr73/ws_moveit/devel/./setup.zsh
Symlinking /home/jsr73/ws_moveit/devel/./local_setup.zsh
Symlinking /home/jsr73/ws_moveit/devel/lib/pkgconfig/catkin_tools_prebuild.pc
Symlinking /home/jsr73/ws_moveit/devel/share/catkin_tools_prebuild/cmake/catkin_tools_prebuildConfig.cmake
Symlinking /home/jsr73/ws_moveit/devel/share/catkin_tools_prebuild/cmake/catkin_tools_prebuildConfig-version.cmake
