Linked: (/home/jsr73/ws_moveit/devel/.private/moveit_resources_fanuc_description/lib/pkgconfig/moveit_resources_fanuc_description.pc, /home/jsr73/ws_moveit/devel/lib/pkgconfig/moveit_resources_fanuc_description.pc)
Linked: (/home/jsr73/ws_moveit/devel/.private/moveit_resources_fanuc_description/share/moveit_resources_fanuc_description/cmake/moveit_resources_fanuc_descriptionConfig.cmake, /home/jsr73/ws_moveit/devel/share/moveit_resources_fanuc_description/cmake/moveit_resources_fanuc_descriptionConfig.cmake)
Linked: (/home/jsr73/ws_moveit/devel/.private/moveit_resources_fanuc_description/share/moveit_resources_fanuc_description/cmake/moveit_resources_fanuc_descriptionConfig-version.cmake, /home/jsr73/ws_moveit/devel/share/moveit_resources_fanuc_description/cmake/moveit_resources_fanuc_descriptionConfig-version.cmake)
